program/00_counter/sim/dump.vcd
$date
	Fri May  8 19:57:17 2020
$end
$version
	Icarus Verilog
$end
$timescale
	100ps
$end
$scope module sm_testbench $end
$scope module sm_top $end
$scope module sm_cpu $end
$scope module rf $end
$var reg 32 ! \rf[0] [31:0] $end
$upscope $end
$upscope $end
$upscope $end
$upscope $end
$scope module sm_testbench $end
$scope module sm_top $end
$scope module sm_cpu $end
$scope module rf $end
$var reg 32 " \rf[1] [31:0] $end
$upscope $end
$upscope $end
$upscope $end
$upscope $end
$scope module sm_testbench $end
$scope module sm_top $end
$scope module sm_cpu $end
$scope module rf $end
$var reg 32 # \rf[2] [31:0] $end
$upscope $end
$upscope $end
$upscope $end
$upscope $end
$scope module sm_testbench $end
$scope module sm_top $end
$scope module sm_cpu $end
$scope module rf $end
$var reg 32 $ \rf[3] [31:0] $end
$upscope $end
$upscope $end
$upscope $end
$upscope $end
$scope module sm_testbench $end
$scope module sm_top $end
$scope module sm_cpu $end
$scope module rf $end
$var reg 32 % \rf[4] [31:0] $end
$upscope $end
$upscope $end
$upscope $end
$upscope $end
$scope module sm_testbench $end
$scope module sm_top $end
$scope module sm_cpu $end
$scope module rf $end
$var reg 32 & \rf[5] [31:0] $end
$upscope $end
$upscope $end
$upscope $end
$upscope $end
$scope module sm_testbench $end
$scope module sm_top $end
$scope module sm_cpu $end
$scope module rf $end
$var reg 32 ' \rf[6] [31:0] $end
$upscope $end
$upscope $end
$upscope $end
$upscope $end
$scope module sm_testbench $end
$scope module sm_top $end
$scope module sm_cpu $end
$scope module rf $end
$var reg 32 ( \rf[7] [31:0] $end
$upscope $end
$upscope $end
$upscope $end
$upscope $end
$scope module sm_testbench $end
$scope module sm_top $end
$scope module sm_cpu $end
$scope module rf $end
$var reg 32 ) \rf[8] [31:0] $end
$upscope $end
$upscope $end
$upscope $end
$upscope $end
$scope module sm_testbench $end
$scope module sm_top $end
$scope module sm_cpu $end
$scope module rf $end
$var reg 32 * \rf[9] [31:0] $end
$upscope $end
$upscope $end
$upscope $end
$upscope $end
$scope module sm_testbench $end
$scope module sm_top $end
$scope module sm_cpu $end
$scope module rf $end
$var reg 32 + \rf[10] [31:0] $end
$upscope $end
$upscope $end
$upscope $end
$upscope $end
$scope module sm_testbench $end
$scope module sm_top $end
$scope module sm_cpu $end
$scope module rf $end
$var reg 32 , \rf[11] [31:0] $end
$upscope $end
$upscope $end
$upscope $end
$upscope $end
$scope module sm_testbench $end
$scope module sm_top $end
$scope module sm_cpu $end
$scope module rf $end
$var reg 32 - \rf[12] [31:0] $end
$upscope $end
$upscope $end
$upscope $end
$upscope $end
$scope module sm_testbench $end
$scope module sm_top $end
$scope module sm_cpu $end
$scope module rf $end
$var reg 32 . \rf[13] [31:0] $end
$upscope $end
$upscope $end
$upscope $end
$upscope $end
$scope module sm_testbench $end
$scope module sm_top $end
$scope module sm_cpu $end
$scope module rf $end
$var reg 32 / \rf[14] [31:0] $end
$upscope $end
$upscope $end
$upscope $end
$upscope $end
$scope module sm_testbench $end
$scope module sm_top $end
$scope module sm_cpu $end
$scope module rf $end
$var reg 32 0 \rf[15] [31:0] $end
$upscope $end
$upscope $end
$upscope $end
$upscope $end
$scope module sm_testbench $end
$scope module sm_top $end
$scope module sm_cpu $end
$scope module rf $end
$var reg 32 1 \rf[16] [31:0] $end
$upscope $end
$upscope $end
$upscope $end
$upscope $end
$scope module sm_testbench $end
$scope module sm_top $end
$scope module sm_cpu $end
$scope module rf $end
$var reg 32 2 \rf[17] [31:0] $end
$upscope $end
$upscope $end
$upscope $end
$upscope $end
$scope module sm_testbench $end
$scope module sm_top $end
$scope module sm_cpu $end
$scope module rf $end
$var reg 32 3 \rf[18] [31:0] $end
$upscope $end
$upscope $end
$upscope $end
$upscope $end
$scope module sm_testbench $end
$scope module sm_top $end
$scope module sm_cpu $end
$scope module rf $end
$var reg 32 4 \rf[19] [31:0] $end
$upscope $end
$upscope $end
$upscope $end
$upscope $end
$scope module sm_testbench $end
$scope module sm_top $end
$scope module sm_cpu $end
$scope module rf $end
$var reg 32 5 \rf[20] [31:0] $end
$upscope $end
$upscope $end
$upscope $end
$upscope $end
$scope module sm_testbench $end
$scope module sm_top $end
$scope module sm_cpu $end
$scope module rf $end
$var reg 32 6 \rf[21] [31:0] $end
$upscope $end
$upscope $end
$upscope $end
$upscope $end
$scope module sm_testbench $end
$scope module sm_top $end
$scope module sm_cpu $end
$scope module rf $end
$var reg 32 7 \rf[22] [31:0] $end
$upscope $end
$upscope $end
$upscope $end
$upscope $end
$scope module sm_testbench $end
$scope module sm_top $end
$scope module sm_cpu $end
$scope module rf $end
$var reg 32 8 \rf[23] [31:0] $end
$upscope $end
$upscope $end
$upscope $end
$upscope $end
$scope module sm_testbench $end
$scope module sm_top $end
$scope module sm_cpu $end
$scope module rf $end
$var reg 32 9 \rf[24] [31:0] $end
$upscope $end
$upscope $end
$upscope $end
$upscope $end
$scope module sm_testbench $end
$scope module sm_top $end
$scope module sm_cpu $end
$scope module rf $end
$var reg 32 : \rf[25] [31:0] $end
$upscope $end
$upscope $end
$upscope $end
$upscope $end
$scope module sm_testbench $end
$scope module sm_top $end
$scope module sm_cpu $end
$scope module rf $end
$var reg 32 ; \rf[26] [31:0] $end
$upscope $end
$upscope $end
$upscope $end
$upscope $end
$scope module sm_testbench $end
$scope module sm_top $end
$scope module sm_cpu $end
$scope module rf $end
$var reg 32 < \rf[27] [31:0] $end
$upscope $end
$upscope $end
$upscope $end
$upscope $end
$scope module sm_testbench $end
$scope module sm_top $end
$scope module sm_cpu $end
$scope module rf $end
$var reg 32 = \rf[28] [31:0] $end
$upscope $end
$upscope $end
$upscope $end
$upscope $end
$scope module sm_testbench $end
$scope module sm_top $end
$scope module sm_cpu $end
$scope module rf $end
$var reg 32 > \rf[29] [31:0] $end
$upscope $end
$upscope $end
$upscope $end
$upscope $end
$scope module sm_testbench $end
$scope module sm_top $end
$scope module sm_cpu $end
$scope module rf $end
$var reg 32 ? \rf[30] [31:0] $end
$upscope $end
$upscope $end
$upscope $end
$upscope $end
$scope module sm_testbench $end
$scope module sm_top $end
$scope module sm_cpu $end
$scope module rf $end
$var reg 32 @ \rf[31] [31:0] $end
$upscope $end
$upscope $end
$upscope $end
$upscope $end
$scope module sm_testbench $end
$var wire 1 A cpuClk $end
$var wire 32 B regData [31:0] $end
$var reg 1 C clk $end
$var integer 32 D cycle [31:0] $end
$var integer 32 E i [31:0] $end
$var reg 5 F regAddr [4:0] $end
$var reg 1 G rst_n $end
$scope module sm_top $end
$var wire 5 H addr [4:0] $end
$var wire 1 A clk $end
$var wire 4 I clkDevide [3:0] $end
$var wire 1 J clkEnable $end
$var wire 1 K clkIn $end
$var wire 4 L devide [3:0] $end
$var wire 1 M enable $end
$var wire 32 N imAddr [31:0] $end
$var wire 32 O imData [31:0] $end
$var wire 5 P regAddr [4:0] $end
$var wire 32 Q regData [31:0] $end
$var wire 1 R rst_n $end
$scope module f0 $end
$var wire 1 K clk $end
$var wire 4 S d [3:0] $end
$var reg 4 T data [3:0] $end
$var reg 4 U q [3:0] $end
$upscope $end
$scope module f1 $end
$var wire 1 K clk $end
$var wire 1 J d $end
$var reg 1 V data $end
$var reg 1 W q $end
$upscope $end
$scope module f2 $end
$var wire 1 K clk $end
$var wire 5 X d [4:0] $end
$var reg 5 Y data [4:0] $end
$var reg 5 Z q [4:0] $end
$upscope $end
$scope module sm_clk_divider $end
$var wire 1 K clkIn $end
$var wire 1 A clkOut $end
$var wire 32 [ cntr [31:0] $end
$var wire 32 \ cntrNext [31:0] $end
$var wire 4 ] devide [3:0] $end
$var wire 1 M enable $end
$var wire 1 R rst_n $end
$scope module r_cntr $end
$var wire 1 K clk $end
$var wire 32 ^ d [31:0] $end
$var wire 1 R rst $end
$var wire 1 M we $end
$var reg 32 _ q [31:0] $end
$upscope $end
$upscope $end
$scope module reset_rom $end
$var wire 32 ` a [31:0] $end
$var wire 32 a rd [31:0] $end
$upscope $end
$scope module sm_cpu $end
$var wire 5 b a3 [4:0] $end
$var wire 3 c aluControl [2:0] $end
$var wire 1 d aluSrc $end
$var wire 1 e aluZero $end
$var wire 1 A clk $end
$var wire 32 f imAddr [31:0] $end
$var wire 32 g imData [31:0] $end
$var wire 32 h instr [31:0] $end
$var wire 1 i memLoad $end
$var wire 32 j memRes [31:0] $end
$var wire 1 k memStore $end
$var wire 32 l pc [31:0] $end
$var wire 32 m pcBranch [31:0] $end
$var wire 32 n pcNext [31:0] $end
$var wire 1 o pcSrc $end
$var wire 32 p pc_new [31:0] $end
$var wire 32 q rd0 [31:0] $end
$var wire 32 r rd1 [31:0] $end
$var wire 32 s rd2 [31:0] $end
$var wire 5 t regAddr [4:0] $end
$var wire 32 u regData [31:0] $end
$var wire 1 v regDst $end
$var wire 1 w regWrite $end
$var wire 1 R rst_n $end
$var wire 32 x signImm [31:0] $end
$var wire 32 y srcB [31:0] $end
$var wire 32 z wd3 [31:0] $end
$var wire 32 { wd3_temp [31:0] $end
$scope module r_pc $end
$var wire 1 A clk $end
$var wire 32 | d [31:0] $end
$var wire 1 R rst $end
$var reg 32 } q [31:0] $end
$upscope $end
$scope module rf $end
$var wire 5 ~ a0 [4:0] $end
$var wire 5 !" a1 [4:0] $end
$var wire 5 "" a2 [4:0] $end
$var wire 5 #" a3 [4:0] $end
$var wire 1 A clk $end
$var wire 32 $" rd0 [31:0] $end
$var wire 32 %" rd1 [31:0] $end
$var wire 32 &" rd2 [31:0] $end
$var wire 32 '" wd3 [31:0] $end
$var wire 1 w we3 $end
$upscope $end
$scope module alu $end
$var wire 3 (" oper [2:0] $end
$var wire 5 )" shift [4:0] $end
$var wire 32 *" srcA [31:0] $end
$var wire 32 +" srcB [31:0] $end
$var wire 1 e zero $end
$var reg 32 ," result [31:0] $end
$upscope $end
$scope module sm_control $end
$var wire 1 e aluZero $end
$var wire 6 -" cmdFunk [5:0] $end
$var wire 6 ." cmdOper [5:0] $end
$var wire 1 o pcSrc $end
$var reg 3 /" aluControl [2:0] $end
$var reg 1 0" aluSrc $end
$var reg 1 1" branch $end
$var reg 1 2" condZero $end
$var reg 1 3" memLoad $end
$var reg 1 4" memStore $end
$var reg 1 5" regDst $end
$var reg 1 6" regWrite $end
$upscope $end
$scope module memory $end
$var wire 32 7" base [31:0] $end
$var wire 1 i load $end
$var wire 32 8" offset [31:0] $end
$var wire 32 9" rt [31:0] $end
$var wire 1 k store $end
$var reg 32 :" result [31:0] $end
$upscope $end
$upscope $end
$upscope $end
$scope begin genblk1 $end
$upscope $end
$scope begin genblk01 $end
$upscope $end
$scope begin genblk001 $end
$upscope $end
$scope begin genblk0001 $end
$upscope $end
$scope begin genblk00001 $end
$upscope $end
$scope begin genblk000001 $end
$upscope $end
$scope begin genblk0000001 $end
$upscope $end
$scope begin genblk00000001 $end
$upscope $end
$scope begin genblk000000001 $end
$upscope $end
$scope begin genblk0000000001 $end
$upscope $end
$scope begin genblk00000000001 $end
$upscope $end
$scope begin genblk000000000001 $end
$upscope $end
$scope begin genblk0000000000001 $end
$upscope $end
$scope begin genblk00000000000001 $end
$upscope $end
$scope begin genblk000000000000001 $end
$upscope $end
$scope begin genblk0000000000000001 $end
$upscope $end
$scope begin genblk00000000000000001 $end
$upscope $end
$scope begin genblk000000000000000001 $end
$upscope $end
$scope begin genblk0000000000000000001 $end
$upscope $end
$scope begin genblk00000000000000000001 $end
$upscope $end
$scope begin genblk000000000000000000001 $end
$upscope $end
$scope begin genblk0000000000000000000001 $end
$upscope $end
$scope begin genblk00000000000000000000001 $end
$upscope $end
$scope begin genblk000000000000000000000001 $end
$upscope $end
$scope begin genblk0000000000000000000000001 $end
$upscope $end
$scope begin $gen1[25] $end
$upscope $end
$scope begin $gen1[26] $end
$upscope $end
$scope begin $gen1[27] $end
$upscope $end
$scope begin $gen1[28] $end
$upscope $end
$scope begin $gen1[29] $end
$upscope $end
$scope begin $gen1[30] $end
$upscope $end
$scope begin $gen1[31] $end
$upscope $end
$scope task disasmInstr $end
$var reg 6 ;" cmdFunk [5:0] $end
$var reg 16 <" cmdImm [15:0] $end
$var reg 16 =" cmdImmS [15:0] $end
$var reg 6 >" cmdOper [5:0] $end
$var reg 5 ?" cmdRd [4:0] $end
$var reg 5 @" cmdRs [4:0] $end
$var reg 5 A" cmdRt [4:0] $end
$var reg 5 B" cmdSa [4:0] $end
$var reg 32 C" instr [31:0] $end
$upscope $end
$upscope $end
$enddefinitions $end
#0
$dumpvars
bx C"
bx B"
bx A"
bx @"
bx ?"
bx >"
bx ="
bx <"
bx ;"
bx :"
b0 9"
b1000000100001 8"
b0 7"
16"
15"
04"
03"
02"
01"
00"
b0 /"
b0 ."
b100001 -"
b0 ,"
b0 +"
b0 *"
b0 )"
b0 ("
b0 '"
b0 &"
b0 %"
bx $"
b10 #"
b0 ""
b0 !"
bx ~
b0 }
b1 |
b0 {
b0 z
b0 y
b1000000100001 x
1w
1v
bx u
bx t
b0 s
b0 r
bx q
b1 p
0o
b1 n
b1000000100010 m
b0 l
0k
bx j
0i
b1000000100001 h
b1000000100001 g
b0 f
1e
0d
b0 c
b10 b
b1000000100001 a
b0 `
b0 _
b1 ^
bx ]
b1 \
b0 [
bx Z
bx Y
b0 X
xW
xV
bx U
bx T
b0 S
0R
bx Q
b0 P
b1000000100001 O
b0 N
xM
bx L
0K
1J
b0 I
bx H
0G
b0 F
b100000 E
b0 D
0C
bx B
0A
b0 @
b0 ?
b0 >
b0 =
b0 <
b0 ;
b0 :
b0 9
b0 8
b0 7
b0 6
b0 5
b0 4
b0 3
b0 2
b0 1
b0 0
b0 /
b0 .
b0 -
b0 ,
b0 +
b0 *
b0 )
b0 (
b0 '
b0 &
b0 %
b0 $
b0 #
b0 "
b0 !
$end
#100
b0 T
1V
b0 Y
b0 #
b1 D
b1000000100001 ="
b1000000100001 <"
b0 B"
b10 ?"
b0 A"
b0 @"
b100001 ;"
b0 >"
b1000000100001 C"
1C
1K
1A
#200
0C
0K
0A
#300
b0 B
b0 Q
b0 u
b0 q
b0 $"
b0 Z
b0 H
b0 t
b0 ~
1W
1M
b0 U
b0 L
b0 ]
b0 #
b10 D
1C
1K
1A
#400
0C
0K
0A
#500
b0 #
b11 D
1C
1K
1A
#600
0C
0K
0A
#700
b10 \
b10 ^
b1 _
b1 [
b0 #
b100 D
1G
1R
1C
1K
1A
#800
0C
0K
0A
#900
b1 z
b1 '"
b1 ,"
0e
b1 {
b1 y
b1 +"
b10 p
b10 |
10"
1d
16"
1w
05"
0v
b11 \
b11 ^
b1 B
b1 Q
b1 u
b10 n
b10 !"
b10 ""
b11 m
b1 x
b1 8"
b1001 ."
b1 -"
b10 _
b10 [
b0 #
b1 }
b1 l
b100100010000100000000000000001 h
b100100010000100000000000000001 O
b100100010000100000000000000001 a
b100100010000100000000000000001 g
b1 N
b1 `
b1 f
b101 D
1C
1K
1A
#1000
0C
0K
0A
#1100
1e
b0 z
b0 '"
1o
b1 p
b1 |
b0 b
b0 #"
b0 y
b0 +"
b0 ,"
b0 {
b101 /"
b101 c
b101 ("
12"
11"
00"
0d
06"
0w
b100 \
b100 ^
b10 B
b10 Q
b10 u
b11 n
b0 !"
b0 ""
b1 m
b11111111111111111111111111111110 x
b11111111111111111111111111111110 8"
b11111 )"
b100 ."
b111110 -"
b11 _
b11 [
b1 #
b10 }
b10 l
b10000000000001111111111111110 h
b10000000000001111111111111110 O
b10000000000001111111111111110 a
b10000000000001111111111111110 g
b10 N
b10 `
b10 f
b110 D
b1 ="
b1 <"
b0 ?"
b10 A"
b10 @"
b1 ;"
b1001 >"
b100100010000100000000000000001 C"
1C
1K
1A
#1200
0C
0K
0A
#1300
b10 z
b10 '"
b10 ,"
0e
b10 {
b1 y
b1 +"
0o
b10 b
b10 #"
b1 r
b1 %"
b1 *"
b1 7"
b1 s
b1 &"
b1 9"
b10 p
b10 |
10"
1d
16"
1w
b0 /"
b0 c
b0 ("
02"
01"
b101 \
b101 ^
b1 B
b1 Q
b1 u
b10 n
b10 !"
b10 ""
b11 m
b1 x
b1 8"
b0 )"
b1001 ."
b1 -"
b100 _
b100 [
b1 }
b1 l
b100100010000100000000000000001 h
b100100010000100000000000000001 O
b100100010000100000000000000001 a
b100100010000100000000000000001 g
b1 N
b1 `
b1 f
b111 D
b1111111111111110 ="
b1111111111111110 <"
b11111 B"
b11111 ?"
b0 A"
b0 @"
b111110 ;"
b100 >"
b10000000000001111111111111110 C"
1C
1K
1A
#1400
0C
0K
0A
#1500
1e
b0 z
b0 '"
1o
b1 p
b1 |
b0 b
b0 #"
b0 y
b0 +"
b0 ,"
b0 {
b101 /"
b101 c
b101 ("
12"
11"
00"
0d
06"
0w
b110 \
b110 ^
b0 r
b0 %"
b0 *"
b0 7"
b0 s
b0 &"
b0 9"
b10 B
b10 Q
b10 u
b11 n
b0 !"
b0 ""
b1 m
b11111111111111111111111111111110 x
b11111111111111111111111111111110 8"
b11111 )"
b100 ."
b111110 -"
b101 _
b101 [
b10 #
b10 }
b10 l
b10000000000001111111111111110 h
b10000000000001111111111111110 O
b10000000000001111111111111110 a
b10000000000001111111111111110 g
b10 N
b10 `
b10 f
b1000 D
b1 ="
b1 <"
b0 B"
b0 ?"
b10 A"
b10 @"
b1 ;"
b1001 >"
b100100010000100000000000000001 C"
1C
1K
1A
#1600
0C
0K
0A
#1700
b11 z
b11 '"
b11 ,"
0e
b11 {
b1 y
b1 +"
0o
b10 b
b10 #"
b10 r
b10 %"
b10 *"
b10 7"
b10 s
b10 &"
b10 9"
b10 p
b10 |
10"
1d
16"
1w
b0 /"
b0 c
b0 ("
02"
01"
b111 \
b111 ^
b1 B
b1 Q
b1 u
b10 n
b10 !"
b10 ""
b11 m
b1 x
b1 8"
b0 )"
b1001 ."
b1 -"
b110 _
b110 [
b1 }
b1 l
b100100010000100000000000000001 h
b100100010000100000000000000001 O
b100100010000100000000000000001 a
b100100010000100000000000000001 g
b1 N
b1 `
b1 f
b1001 D
b1111111111111110 ="
b1111111111111110 <"
b11111 B"
b11111 ?"
b0 A"
b0 @"
b111110 ;"
b100 >"
b10000000000001111111111111110 C"
1C
1K
1A
#1800
0C
0K
0A
#1900
1e
b0 z
b0 '"
1o
b1 p
b1 |
b0 b
b0 #"
b0 y
b0 +"
b0 ,"
b0 {
b101 /"
b101 c
b101 ("
12"
11"
00"
0d
06"
0w
b1000 \
b1000 ^
b0 r
b0 %"
b0 *"
b0 7"
b0 s
b0 &"
b0 9"
b10 B
b10 Q
b10 u
b11 n
b0 !"
b0 ""
b1 m
b11111111111111111111111111111110 x
b11111111111111111111111111111110 8"
b11111 )"
b100 ."
b111110 -"
b111 _
b111 [
b11 #
b10 }
b10 l
b10000000000001111111111111110 h
b10000000000001111111111111110 O
b10000000000001111111111111110 a
b10000000000001111111111111110 g
b10 N
b10 `
b10 f
b1010 D
b1 ="
b1 <"
b0 B"
b0 ?"
b10 A"
b10 @"
b1 ;"
b1001 >"
b100100010000100000000000000001 C"
1C
1K
1A
#2000
0C
0K
0A
#2100
b100 z
b100 '"
b100 ,"
0e
b100 {
b1 y
b1 +"
0o
b10 b
b10 #"
b11 r
b11 %"
b11 *"
b11 7"
b11 s
b11 &"
b11 9"
b10 p
b10 |
10"
1d
16"
1w
b0 /"
b0 c
b0 ("
02"
01"
b1001 \
b1001 ^
b1 B
b1 Q
b1 u
b10 n
b10 !"
b10 ""
b11 m
b1 x
b1 8"
b0 )"
b1001 ."
b1 -"
b1000 _
b1000 [
b1 }
b1 l
b100100010000100000000000000001 h
b100100010000100000000000000001 O
b100100010000100000000000000001 a
b100100010000100000000000000001 g
b1 N
b1 `
b1 f
b1011 D
b1111111111111110 ="
b1111111111111110 <"
b11111 B"
b11111 ?"
b0 A"
b0 @"
b111110 ;"
b100 >"
b10000000000001111111111111110 C"
1C
1K
1A
#2200
0C
0K
0A
#2300
1e
b0 z
b0 '"
1o
b1 p
b1 |
b0 b
b0 #"
b0 y
b0 +"
b0 ,"
b0 {
b101 /"
b101 c
b101 ("
12"
11"
00"
0d
06"
0w
b1010 \
b1010 ^
b0 r
b0 %"
b0 *"
b0 7"
b0 s
b0 &"
b0 9"
b10 B
b10 Q
b10 u
b11 n
b0 !"
b0 ""
b1 m
b11111111111111111111111111111110 x
b11111111111111111111111111111110 8"
b11111 )"
b100 ."
b111110 -"
b1001 _
b1001 [
b100 #
b10 }
b10 l
b10000000000001111111111111110 h
b10000000000001111111111111110 O
b10000000000001111111111111110 a
b10000000000001111111111111110 g
b10 N
b10 `
b10 f
b1100 D
b1 ="
b1 <"
b0 B"
b0 ?"
b10 A"
b10 @"
b1 ;"
b1001 >"
b100100010000100000000000000001 C"
1C
1K
1A
#2400
0C
0K
0A
#2500
b101 z
b101 '"
b101 ,"
0e
b101 {
b1 y
b1 +"
0o
b10 b
b10 #"
b100 r
b100 %"
b100 *"
b100 7"
b100 s
b100 &"
b100 9"
b10 p
b10 |
10"
1d
16"
1w
b0 /"
b0 c
b0 ("
02"
01"
b1011 \
b1011 ^
b1 B
b1 Q
b1 u
b10 n
b10 !"
b10 ""
b11 m
b1 x
b1 8"
b0 )"
b1001 ."
b1 -"
b1010 _
b1010 [
b1 }
b1 l
b100100010000100000000000000001 h
b100100010000100000000000000001 O
b100100010000100000000000000001 a
b100100010000100000000000000001 g
b1 N
b1 `
b1 f
b1101 D
b1111111111111110 ="
b1111111111111110 <"
b11111 B"
b11111 ?"
b0 A"
b0 @"
b111110 ;"
b100 >"
b10000000000001111111111111110 C"
1C
1K
1A
#2600
0C
0K
0A
#2700
1e
b0 z
b0 '"
1o
b1 p
b1 |
b0 b
b0 #"
b0 y
b0 +"
b0 ,"
b0 {
b101 /"
b101 c
b101 ("
12"
11"
00"
0d
06"
0w
b1100 \
b1100 ^
b0 r
b0 %"
b0 *"
b0 7"
b0 s
b0 &"
b0 9"
b10 B
b10 Q
b10 u
b11 n
b0 !"
b0 ""
b1 m
b11111111111111111111111111111110 x
b11111111111111111111111111111110 8"
b11111 )"
b100 ."
b111110 -"
b1011 _
b1011 [
b101 #
b10 }
b10 l
b10000000000001111111111111110 h
b10000000000001111111111111110 O
b10000000000001111111111111110 a
b10000000000001111111111111110 g
b10 N
b10 `
b10 f
b1110 D
b1 ="
b1 <"
b0 B"
b0 ?"
b10 A"
b10 @"
b1 ;"
b1001 >"
b100100010000100000000000000001 C"
1C
1K
1A
#2800
0C
0K
0A
#2900
b110 z
b110 '"
b110 ,"
0e
b110 {
b1 y
b1 +"
0o
b10 b
b10 #"
b101 r
b101 %"
b101 *"
b101 7"
b101 s
b101 &"
b101 9"
b10 p
b10 |
10"
1d
16"
1w
b0 /"
b0 c
b0 ("
02"
01"
b1101 \
b1101 ^
b1 B
b1 Q
b1 u
b10 n
b10 !"
b10 ""
b11 m
b1 x
b1 8"
b0 )"
b1001 ."
b1 -"
b1100 _
b1100 [
b1 }
b1 l
b100100010000100000000000000001 h
b100100010000100000000000000001 O
b100100010000100000000000000001 a
b100100010000100000000000000001 g
b1 N
b1 `
b1 f
b1111 D
b1111111111111110 ="
b1111111111111110 <"
b11111 B"
b11111 ?"
b0 A"
b0 @"
b111110 ;"
b100 >"
b10000000000001111111111111110 C"
1C
1K
1A
#3000
0C
0K
0A
#3100
1e
b0 z
b0 '"
1o
b1 p
b1 |
b0 b
b0 #"
b0 y
b0 +"
b0 ,"
b0 {
b101 /"
b101 c
b101 ("
12"
11"
00"
0d
06"
0w
b1110 \
b1110 ^
b0 r
b0 %"
b0 *"
b0 7"
b0 s
b0 &"
b0 9"
b10 B
b10 Q
b10 u
b11 n
b0 !"
b0 ""
b1 m
b11111111111111111111111111111110 x
b11111111111111111111111111111110 8"
b11111 )"
b100 ."
b111110 -"
b1101 _
b1101 [
b110 #
b10 }
b10 l
b10000000000001111111111111110 h
b10000000000001111111111111110 O
b10000000000001111111111111110 a
b10000000000001111111111111110 g
b10 N
b10 `
b10 f
b10000 D
b1 ="
b1 <"
b0 B"
b0 ?"
b10 A"
b10 @"
b1 ;"
b1001 >"
b100100010000100000000000000001 C"
1C
1K
1A
#3200
0C
0K
0A
#3300
b111 z
b111 '"
b111 ,"
0e
b111 {
b1 y
b1 +"
0o
b10 b
b10 #"
b110 r
b110 %"
b110 *"
b110 7"
b110 s
b110 &"
b110 9"
b10 p
b10 |
10"
1d
16"
1w
b0 /"
b0 c
b0 ("
02"
01"
b1111 \
b1111 ^
b1 B
b1 Q
b1 u
b10 n
b10 !"
b10 ""
b11 m
b1 x
b1 8"
b0 )"
b1001 ."
b1 -"
b1110 _
b1110 [
b1 }
b1 l
b100100010000100000000000000001 h
b100100010000100000000000000001 O
b100100010000100000000000000001 a
b100100010000100000000000000001 g
b1 N
b1 `
b1 f
b10001 D
b1111111111111110 ="
b1111111111111110 <"
b11111 B"
b11111 ?"
b0 A"
b0 @"
b111110 ;"
b100 >"
b10000000000001111111111111110 C"
1C
1K
1A
#3400
0C
0K
0A
#3500
1e
b0 z
b0 '"
1o
b1 p
b1 |
b0 b
b0 #"
b0 y
b0 +"
b0 ,"
b0 {
b101 /"
b101 c
b101 ("
12"
11"
00"
0d
06"
0w
b10000 \
b10000 ^
b0 r
b0 %"
b0 *"
b0 7"
b0 s
b0 &"
b0 9"
b10 B
b10 Q
b10 u
b11 n
b0 !"
b0 ""
b1 m
b11111111111111111111111111111110 x
b11111111111111111111111111111110 8"
b11111 )"
b100 ."
b111110 -"
b1111 _
b1111 [
b111 #
b10 }
b10 l
b10000000000001111111111111110 h
b10000000000001111111111111110 O
b10000000000001111111111111110 a
b10000000000001111111111111110 g
b10 N
b10 `
b10 f
b10010 D
b1 ="
b1 <"
b0 B"
b0 ?"
b10 A"
b10 @"
b1 ;"
b1001 >"
b100100010000100000000000000001 C"
1C
1K
1A
#3600
0C
0K
0A
#3700
b1000 z
b1000 '"
b1000 ,"
0e
b1000 {
b1 y
b1 +"
0o
b10 b
b10 #"
b111 r
b111 %"
b111 *"
b111 7"
b111 s
b111 &"
b111 9"
b10 p
b10 |
10"
1d
16"
1w
b0 /"
b0 c
b0 ("
02"
01"
b10001 \
b10001 ^
b1 B
b1 Q
b1 u
b10 n
b10 !"
b10 ""
b11 m
b1 x
b1 8"
b0 )"
b1001 ."
b1 -"
b10000 _
b10000 [
b1 }
b1 l
b100100010000100000000000000001 h
b100100010000100000000000000001 O
b100100010000100000000000000001 a
b100100010000100000000000000001 g
b1 N
b1 `
b1 f
b10011 D
b1111111111111110 ="
b1111111111111110 <"
b11111 B"
b11111 ?"
b0 A"
b0 @"
b111110 ;"
b100 >"
b10000000000001111111111111110 C"
1C
1K
1A
#3800
0C
0K
0A
#3900
1e
b0 z
b0 '"
1o
b1 p
b1 |
b0 b
b0 #"
b0 y
b0 +"
b0 ,"
b0 {
b101 /"
b101 c
b101 ("
12"
11"
00"
0d
06"
0w
b10010 \
b10010 ^
b0 r
b0 %"
b0 *"
b0 7"
b0 s
b0 &"
b0 9"
b10 B
b10 Q
b10 u
b11 n
b0 !"
b0 ""
b1 m
b11111111111111111111111111111110 x
b11111111111111111111111111111110 8"
b11111 )"
b100 ."
b111110 -"
b10001 _
b10001 [
b1000 #
b10 }
b10 l
b10000000000001111111111111110 h
b10000000000001111111111111110 O
b10000000000001111111111111110 a
b10000000000001111111111111110 g
b10 N
b10 `
b10 f
b10100 D
b1 ="
b1 <"
b0 B"
b0 ?"
b10 A"
b10 @"
b1 ;"
b1001 >"
b100100010000100000000000000001 C"
1C
1K
1A
#4000
0C
0K
0A
#4100
b1001 z
b1001 '"
b1001 ,"
0e
b1001 {
b1 y
b1 +"
0o
b10 b
b10 #"
b1000 r
b1000 %"
b1000 *"
b1000 7"
b1000 s
b1000 &"
b1000 9"
b10 p
b10 |
10"
1d
16"
1w
b0 /"
b0 c
b0 ("
02"
01"
b10011 \
b10011 ^
b1 B
b1 Q
b1 u
b10 n
b10 !"
b10 ""
b11 m
b1 x
b1 8"
b0 )"
b1001 ."
b1 -"
b10010 _
b10010 [
b1 }
b1 l
b100100010000100000000000000001 h
b100100010000100000000000000001 O
b100100010000100000000000000001 a
b100100010000100000000000000001 g
b1 N
b1 `
b1 f
b10101 D
b1111111111111110 ="
b1111111111111110 <"
b11111 B"
b11111 ?"
b0 A"
b0 @"
b111110 ;"
b100 >"
b10000000000001111111111111110 C"
1C
1K
1A
#4200
0C
0K
0A
#4300
1e
b0 z
b0 '"
1o
b1 p
b1 |
b0 b
b0 #"
b0 y
b0 +"
b0 ,"
b0 {
b101 /"
b101 c
b101 ("
12"
11"
00"
0d
06"
0w
b10100 \
b10100 ^
b0 r
b0 %"
b0 *"
b0 7"
b0 s
b0 &"
b0 9"
b10 B
b10 Q
b10 u
b11 n
b0 !"
b0 ""
b1 m
b11111111111111111111111111111110 x
b11111111111111111111111111111110 8"
b11111 )"
b100 ."
b111110 -"
b10011 _
b10011 [
b1001 #
b10 }
b10 l
b10000000000001111111111111110 h
b10000000000001111111111111110 O
b10000000000001111111111111110 a
b10000000000001111111111111110 g
b10 N
b10 `
b10 f
b10110 D
b1 ="
b1 <"
b0 B"
b0 ?"
b10 A"
b10 @"
b1 ;"
b1001 >"
b100100010000100000000000000001 C"
1C
1K
1A
#4400
0C
0K
0A
